AUC COMPARISON SUMMARY
======================

Summary Statistics by Dataset and Tool:
----------------------------------------
# A tibble: 25 × 3
   dataset tool          mean_auc
   <chr>   <fct>            <dbl>
 1 exovar  SIFT4G           0.798
 2 exovar  REVEL            0.973
 3 exovar  PrimateAI        0.839
 4 exovar  MetaRNN          0.988
 5 exovar  AlphaMissense    0.912
 6 humvar  SIFT4G           0.858
 7 humvar  REVEL            0.983
 8 humvar  PrimateAI        0.882
 9 humvar  MetaRNN          0.990
10 humvar  AlphaMissense    0.933
# ℹ 15 more rows
# ℹ Use `print(n = ...)` to see more rows
…
